{
  "title": "RESTful API Design",
  "language": "api",
  "topic": {
    "id": "restful-api",
    "name": "RESTful API Design",
    "description": "Deep dive into REST principles, resource modeling, and building production-ready RESTful APIs"
  },
  "content": "# RESTful API Design\n\nREST (Representational State Transfer) is an architectural style for designing networked applications. It provides a set of constraints and principles that, when applied as a whole, emphasize scalability, simplicity, and modifiability.\n\n---\n\n## Core REST Principles\n\nREST was defined by Roy Fielding in his doctoral dissertation. The key principles are:\n\n### 1. Client-Server Architecture\n\n- Separation of concerns between UI and data storage\n- Independent evolution of client and server\n- Improved portability across platforms\n\n### 2. Stateless\n\n- Each request contains all information needed to process it\n- No session state stored on the server\n- Server treats each request independently\n- Improves reliability and scalability\n\n### 3. Cacheable\n\n- Responses must define themselves as cacheable or non-cacheable\n- Reduces client-server interactions\n- Improves performance and scalability\n- Uses HTTP caching headers (`Cache-Control`, `ETag`)\n\n### 4. Uniform Interface\n\nThe most distinctive REST constraint, with four sub-constraints:\n\n- **Resource Identification** — Resources identified by URIs\n- **Resource Manipulation through Representations** — JSON/XML payloads\n- **Self-descriptive Messages** — Each message includes enough info to process\n- **HATEOAS** — Hypermedia as the Engine of Application State\n\n### 5. Layered System\n\n- Client cannot tell if connected directly to server\n- Intermediaries (load balancers, proxies) can be added\n- Improves scalability and security\n\n---\n\n## Resources and URLs\n\n### What is a Resource?\n\nA **resource** is any entity that can be named and accessed. Examples:\n\n- A user (`/users/123`)\n- An order (`/orders/456`)\n- A user's profile picture (`/users/123/avatar`)\n- A collection of products (`/products`)\n\n### URL Design Rules\n\n| Rule | Example | Rationale |\n|------|---------|----------|\n| Use nouns, not verbs | `GET /users` | HTTP methods already express verbs |\n| Use plural nouns | `GET /users` | Consistent with resource collections |\n| Use lowercase | `GET /user-profiles` | Avoids case sensitivity issues |\n| Use hyphens | `GET /user-profiles` | More readable than underscores |\n| Use path hierarchy | `GET /users/123/orders` | Shows resource relationships |\n| Avoid file extensions | `GET /users` | Use Accept header instead |\n| Version via path | `GET /v1/users` | Clear versioning strategy |\n\n### Resource Naming Patterns\n\n**Singular resources:**\n- `GET /users/123` — Get specific user\n- `PUT /users/123` — Update user\n- `DELETE /users/123` — Delete user\n\n**Collection resources:**\n- `GET /users` — List all users\n- `POST /users` — Create new user\n\n**Sub-resources:**\n- `GET /users/123/orders` — List user's orders\n- `POST /users/123/orders` — Create order for user\n- `GET /users/123/orders/456` — Get specific order\n\n---\n\n## HTTP Methods Deep Dive\n\n### GET — Retrieve Resources\n\n```http\nGET /users?page=1&limit=10 HTTP/1.1\nHost: api.example.com\nAccept: application/json\n```\n\n**Response:**\n```http\nHTTP/1.1 200 OK\nContent-Type: application/json\nCache-Control: max-age=3600\n\n{\n  \"data\": [...],\n  \"meta\": {\n    \"total\": 100,\n    \"page\": 1,\n    \"limit\": 10\n  }\n}\n```\n\n### POST — Create Resources\n\n```http\nPOST /users HTTP/1.1\nHost: api.example.com\nContent-Type: application/json\n\n{\n  \"name\": \"John Doe\",\n  \"email\": \"john@example.com\"\n}\n```\n\n**Response:**\n```http\nHTTP/1.1 201 Created\nLocation: /users/123\nContent-Type: application/json\n\n{\n  \"id\": 123,\n  \"name\": \"John Doe\",\n  \"email\": \"john@example.com\"\n}\n```\n\n### PUT — Replace Resources\n\n```http\nPUT /users/123 HTTP/1.1\nHost: api.example.com\nContent-Type: application/json\n\n{\n  \"name\": \"John Smith\",\n  \"email\": \"john.smith@example.com\"\n}\n```\n\n### PATCH — Partial Updates\n\n```http\nPATCH /users/123 HTTP/1.1\nHost: api.example.com\nContent-Type: application/json\n\n{\n  \"email\": \"newemail@example.com\"\n}\n```\n\n### DELETE — Remove Resources\n\n```http\nDELETE /users/123 HTTP/1.1\nHost: api.example.com\n```\n\n**Response:**\n```http\nHTTP/1.1 204 No Content\n```\n\n---\n\n## Status Codes\n\n### 2xx Success\n\n| Code | Meaning | When to Use |\n|------|---------|-------------|\n| `200 OK` | Success | GET, PUT, PATCH success |\n| `201 Created` | Resource created | POST success |\n| `202 Accepted` | Async processing started | Long-running operations |\n| `204 No Content` | Success, no body | DELETE success |\n\n### 4xx Client Errors\n\n| Code | Meaning | When to Use |\n|------|---------|-------------|\n| `400 Bad Request` | Invalid syntax | Malformed JSON, missing fields |\n| `401 Unauthorized` | Auth required | Missing or invalid token |\n| `403 Forbidden` | Not authorized | Valid token, insufficient permissions |\n| `404 Not Found` | Resource not found | Invalid ID or endpoint |\n| `409 Conflict` | State conflict | Duplicate creation |\n| `422 Unprocessable` | Validation error | Valid syntax, invalid data |\n| `429 Too Many Requests` | Rate limited | Client exceeded rate limit |\n\n---\n\n## Request/Response Format\n\n### JSON Response Structure\n\n**Single resource:**\n```json\n{\n  \"id\": 123,\n  \"name\": \"John Doe\",\n  \"email\": \"john@example.com\",\n  \"created_at\": \"2026-01-15T10:30:00Z\"\n}\n```\n\n**Collection with metadata:**\n```json\n{\n  \"data\": [\n    {\"id\": 1, \"name\": \"Alice\"},\n    {\"id\": 2, \"name\": \"Bob\"}\n  ],\n  \"meta\": {\n    \"total\": 50,\n    \"page\": 1,\n    \"limit\": 10,\n    \"pages\": 5\n  },\n  \"links\": {\n    \"self\": \"/users?page=1\",\n    \"next\": \"/users?page=2\",\n    \"last\": \"/users?page=5\"\n  }\n}\n```\n\n**Error response:**\n```json\n{\n  \"error\": {\n    \"code\": 422,\n    \"type\": \"ValidationError\",\n    \"message\": \"Invalid input data\",\n    \"details\": [\n      {\n        \"field\": \"email\",\n        \"message\": \"Invalid email format\"\n      }\n    ]\n  }\n}\n```\n\n---\n\n## Pagination\n\n### Offset-Based Pagination\n\n```\nGET /users?page=2&limit=20\n```\n\n**Pros:** Simple to implement\n**Cons:** Inconsistent results when data changes, slow for deep pages\n\n### Cursor-Based Pagination\n\n```\nGET /users?cursor=abc123&limit=20\n```\n\n**Pros:** Consistent results, better performance\n**Cons:** More complex, cannot jump to specific page\n\n### Keyset Pagination\n\n```\nGET /users?id_after=100&limit=20\n```\n\n**Pros:** Efficient, consistent\n**Cons:** Only works with ordered, unique fields\n\n---\n\n## Filtering, Sorting, and Searching\n\n### Filtering\n\n```\nGET /users?status=active&role=admin&created_after=2026-01-01\n```\n\n### Sorting\n\n```\nGET /users?sort=-created_at,name\n```\n\nUse `-` prefix for descending order.\n\n### Searching\n\n```\nGET /users?q=john&fields=name,email\n```\n\n---\n\n## HATEOAS (Hypermedia as the Engine of Application State)\n\nHATEOAS means responses include links that guide clients through the API:\n\n```json\n{\n  \"id\": 123,\n  \"name\": \"John Doe\",\n  \"links\": [\n    {\"rel\": \"self\", \"href\": \"/users/123\"},\n    {\"rel\": \"orders\", \"href\": \"/users/123/orders\"},\n    {\"rel\": \"avatar\", \"href\": \"/users/123/avatar\"},\n    {\"rel\": \"delete\", \"href\": \"/users/123\", \"method\": \"DELETE\"}\n  ]\n}\n```\n\n**Benefits:**\n- Client doesn't need to hardcode URLs\n- API can evolve without breaking clients\n- Discoverable navigation\n\n---\n\n## Nested Resources\n\n### One-to-Many Relationships\n\n```\nGET /users/123/orders          # List orders for user 123\nGET /users/123/orders/456      # Get specific order\nPOST /users/123/orders         # Create order for user\nDELETE /users/123/orders/456   # Delete specific order\n```\n\n### Many-to-Many Relationships\n\n```\nGET /products/789/reviews      # List reviews for product\nGET /reviews/456/product       # Get product for review\nPOST /products/789/reviews     # Add review to product\n```\n\n### Flat vs Nested Approach\n\n**Nested:** `/users/123/orders/456`\n- Clear hierarchy\n- Can be confusing with deep nesting\n\n**Flat:** `/orders/456`\n- Simpler URLs\n- Less clear about relationships\n\n---\n\n## Best Practices Summary\n\n1. **Use plural nouns** for resource names\n2. **Use HTTP methods** correctly (GET for read, POST for create, etc.)\n3. **Return appropriate status codes** for each operation\n4. **Implement pagination** for collection endpoints\n5. **Use filtering and sorting** query parameters\n6. **Provide consistent response formats** across all endpoints\n7. **Include error details** in error responses\n8. **Use HTTPS** for all API communication\n9. **Implement rate limiting** to protect your API\n10. **Document everything** with OpenAPI/Swagger",
  "codeExample": "from fastapi import FastAPI, HTTPException, Query, Path, Response, status\nfrom pydantic import BaseModel, Field, EmailStr\nfrom typing import Optional, List\nfrom datetime import datetime\n\napp = FastAPI(title=\"Order Management API\", version=\"1.0.0\")\n\n\n# ── Models ──────────────────────────────────────────────\nclass OrderCreate(BaseModel):\n    product_id: int = Field(..., gt=0)\n    quantity: int = Field(..., gt=0, le=1000)\n    notes: Optional[str] = Field(None, max_length=500)\n\n\nclass OrderResponse(BaseModel):\n    id: int\n    user_id: int\n    product_id: int\n    quantity: int\n    status: str\n    notes: Optional[str]\n    total_price: float\n    created_at: str\n\n\nclass OrderListResponse(BaseModel):\n    data: List[OrderResponse]\n    meta: dict\n    links: dict\n\n\n# ── In-memory storage ──────────────────────────────────\norders_db = {}\nnext_order_id = 1\n\n\n# ── Helper ──────────────────────────────────────────────\ndef build_links(user_id: int, order_id: int) -> dict:\n    return {\n        \"self\": f\"/users/{user_id}/orders/{order_id}\",\n        \"user\": f\"/users/{user_id}\",\n        \"cancel\": {\n            \"href\": f\"/users/{user_id}/orders/{order_id}\",\n            \"method\": \"DELETE\"\n        }\n    }\n\n\n# ── Endpoints ───────────────────────────────────────────\n@app.get(\n    \"/users/{user_id}/orders\",\n    response_model=OrderListResponse,\n    summary=\"List orders for a user\"\n)\nasync def list_user_orders(\n    user_id: int = Path(..., gt=0, description=\"User ID\"),\n    status: Optional[str] = Query(None, description=\"Filter by status\"),\n    sort: str = Query(\"-created_at\", description=\"Sort field (- prefix = desc)\"),\n    page: int = Query(1, ge=1, description=\"Page number\"),\n    limit: int = Query(10, ge=1, le=100, description=\"Items per page\")\n):\n    \"\"\"Retrieve paginated, filterable, and sortable orders for a specific user.\"\"\"\n    user_orders = [o for o in orders_db.values() if o[\"user_id\"] == user_id]\n\n    # Filter by status\n    if status:\n        user_orders = [o for o in user_orders if o[\"status\"] == status]\n\n    # Sort\n    descending = sort.startswith(\"-\")\n    sort_field = sort.lstrip(\"-\")\n    user_orders.sort(key=lambda o: o.get(sort_field, \"\"), reverse=descending)\n\n    # Paginate\n    total = len(user_orders)\n    start = (page - 1) * limit\n    paginated = user_orders[start:start + limit]\n\n    base = f\"/users/{user_id}/orders\"\n    return {\n        \"data\": paginated,\n        \"meta\": {\n            \"total\": total,\n            \"page\": page,\n            \"limit\": limit,\n            \"pages\": max(1, (total + limit - 1) // limit)\n        },\n        \"links\": {\n            \"self\": f\"{base}?page={page}&limit={limit}\",\n            \"next\": f\"{base}?page={page + 1}&limit={limit}\" if start + limit < total else None,\n            \"prev\": f\"{base}?page={page - 1}&limit={limit}\" if page > 1 else None\n        }\n    }\n\n\n@app.post(\n    \"/users/{user_id}/orders\",\n    response_model=OrderResponse,\n    status_code=status.HTTP_201_CREATED,\n    summary=\"Create a new order\"\n)\nasync def create_order(\n    user_id: int = Path(..., gt=0),\n    order: OrderCreate = ...\n):\n    \"\"\"Create a new order for the specified user.\"\"\"\n    global next_order_id\n    new_order = {\n        \"id\": next_order_id,\n        \"user_id\": user_id,\n        \"product_id\": order.product_id,\n        \"quantity\": order.quantity,\n        \"status\": \"pending\",\n        \"notes\": order.notes,\n        \"total_price\": order.quantity * 29.99,\n        \"created_at\": datetime.utcnow().isoformat() + \"Z\"\n    }\n    orders_db[next_order_id] = new_order\n    next_order_id += 1\n    return new_order\n\n\n@app.get(\n    \"/users/{user_id}/orders/{order_id}\",\n    response_model=OrderResponse,\n    summary=\"Get a specific order\"\n)\nasync def get_order(\n    user_id: int = Path(..., gt=0),\n    order_id: int = Path(..., gt=0)\n):\n    \"\"\"Retrieve a specific order by ID.\"\"\"\n    order = orders_db.get(order_id)\n    if not order or order[\"user_id\"] != user_id:\n        raise HTTPException(\n            status_code=status.HTTP_404_NOT_FOUND,\n            detail=f\"Order {order_id} not found for user {user_id}\"\n        )\n    return order\n\n\n@app.delete(\n    \"/users/{user_id}/orders/{order_id}\",\n    status_code=status.HTTP_204_NO_CONTENT,\n    summary=\"Cancel an order\"\n)\nasync def delete_order(\n    user_id: int = Path(..., gt=0),\n    order_id: int = Path(..., gt=0)\n):\n    \"\"\"Cancel and delete a specific order.\"\"\"\n    order = orders_db.get(order_id)\n    if not order or order[\"user_id\"] != user_id:\n        raise HTTPException(\n            status_code=status.HTTP_404_NOT_FOUND,\n            detail=f\"Order {order_id} not found\"\n        )\n    del orders_db[order_id]\n    return Response(status_code=status.HTTP_204_NO_CONTENT)",
  "quiz": [
    {
      "question": "What is the key difference between PUT and PATCH in REST?",
      "options": [
        "PUT is faster than PATCH",
        "PUT replaces the entire resource, PATCH updates only specified fields",
        "PUT only works with JSON, PATCH works with any format",
        "PATCH is deprecated in favor of PUT"
      ],
      "correctIndex": 1,
      "explanation": "PUT replaces the entire resource with the new representation (all fields must be provided), while PATCH applies a partial update, modifying only the fields specified in the request body."
    },
    {
      "question": "Which status code should you return when creating a resource successfully?",
      "options": [
        "200 OK",
        "201 Created",
        "202 Accepted",
        "204 No Content"
      ],
      "correctIndex": 1,
      "explanation": "201 Created indicates a new resource was successfully created. It's the standard response for POST requests that create resources, and should include a Location header with the URI of the new resource."
    },
    {
      "question": "What is cursor-based pagination and why is it preferred over offset-based?",
      "options": [
        "Cursor-based uses page numbers and is simpler to implement",
        "Cursor-based uses a unique identifier and provides consistent results even when data changes",
        "Cursor-based is only supported by GraphQL",
        "Cursor-based requires more server resources than offset-based"
      ],
      "correctIndex": 1,
      "explanation": "Cursor-based pagination uses a pointer (cursor) to a specific position in the dataset. It provides consistent results because it's not affected by data changes between requests, unlike offset-based pagination which can skip or duplicate items."
    }
  ]
}
